…
## il dataset

``` r
food_consumption = readr::read_csv("https://raw.githubusercontent.com/rfordatascience/tidytuesday/master/data/2020/2020-02-18/food_consumption.csv")

food_consumption
#> # A tibble: 1,430 x 4
#>    country   food_category            consumption co2_emmission
#>    <chr>     <chr>                          <dbl>         <dbl>
#>  1 Argentina Pork                           10.5          37.2 
#>  2 Argentina Poultry                        38.7          41.5 
#>  3 Argentina Beef                           55.5        1712   
#>  4 Argentina Lamb & Goat                     1.56         54.6 
#>  5 Argentina Fish                            4.36          6.96
#>  6 Argentina Eggs                           11.4          10.5 
#>  7 Argentina Milk - inc. cheese            195.          278.  
#>  8 Argentina Wheat and Wheat Products      103.           19.7 
#>  9 Argentina Rice                            8.77         11.2 
#> 10 Argentina Soybeans                        0             0   
#> # ... with 1,420 more rows
```
…
food
#> # A tibble: 130 x 12
#>     pork poultry  beef lamb_goat  fish  eggs milk_inc_cheese wheat_and_wheat~
#>    <dbl>   <dbl> <dbl>     <dbl> <dbl> <dbl>           <dbl>            <dbl>
#>  1  10.5    38.7  55.5      1.56  4.36 11.4             195.            103. 
#>  2  24.1    46.1  33.9      9.87 17.7   8.51            234.             70.5
#>  3  10.9    13.2  22.5     15.3   3.85 12.5             304.            139. 
#>  4  21.7    26.9  13.4     21.1  74.4   8.24            226.             72.9
#>  5  22.3    35.0  22.5     18.9  20.4   9.91            137.             76.9
#>  6  27.6    50.0  36.2      0.43 12.4  14.6             255.             80.4
#>  7  16.8    27.4  29.1      8.23  6.53 13.1             211.            109. 
#>  8  43.6    21.4  29.9      1.67 23.1  14.6             255.            103. 
#>  9  12.6    45    39.2      0.62 10.0   8.98            149.             53  
#> 10  10.4    18.4  23.4      9.56  5.21  8.29            288.             92.3
#> # ... with 120 more rows, and 4 more variables: rice <dbl>, soybeans <dbl>,
#> #   nuts_inc_peanut_butter <dbl>, asia <fct>
```
…
``` r
  set.seed(1234)
food_boot = bootstraps(food, times = 30)
food_boot
#> # Bootstrap sampling 
#> # A tibble: 30 x 2
#>    splits           id         
#>    <list>           <chr>      
#>  1 <split [130/48]> Bootstrap01
#>  2 <split [130/49]> Bootstrap02
#>  3 <split [130/49]> Bootstrap03
#>  4 <split [130/51]> Bootstrap04
#>  5 <split [130/47]> Bootstrap05
#>  6 <split [130/51]> Bootstrap06
#>  7 <split [130/57]> Bootstrap07
#>  8 <split [130/51]> Bootstrap08
#>  9 <split [130/44]> Bootstrap09
#> 10 <split [130/53]> Bootstrap10
#> # ... with 20 more rows
```
…
rf_grid = tune_grid(
  asia ~ .,
  model = rf_spec,
  resamples = food_boot
)
#> Warning: `tune_grid.formula()` is deprecated as of lifecycle 0.1.0.
#> The first argument to `tune_grid()` should be either a model or a workflow. In the future, you can use:
#> tune_grid(rf_spec, asia ~ ., resamples = food_boot)
#> This warning is displayed once every 8 hours.
#> Call `lifecycle::last_warnings()` to see where this warning was generated.
#> i Creating pre-processing data to finalize unknown parameter: mtry

rf_grid
#> # Bootstrap sampling 
#> # A tibble: 30 x 4
#>    splits           id          .metrics          .notes          
#>    <list>           <chr>       <list>            <list>          
#>  1 <split [130/48]> Bootstrap01 <tibble [20 x 5]> <tibble [0 x 1]>
#>  2 <split [130/49]> Bootstrap02 <tibble [20 x 5]> <tibble [0 x 1]>
#>  3 <split [130/49]> Bootstrap03 <tibble [20 x 5]> <tibble [0 x 1]>
#>  4 <split [130/51]> Bootstrap04 <tibble [20 x 5]> <tibble [0 x 1]>
#>  5 <split [130/47]> Bootstrap05 <tibble [20 x 5]> <tibble [0 x 1]>
#>  6 <split [130/51]> Bootstrap06 <tibble [20 x 5]> <tibble [0 x 1]>
#>  7 <split [130/57]> Bootstrap07 <tibble [20 x 5]> <tibble [0 x 1]>
#>  8 <split [130/51]> Bootstrap08 <tibble [20 x 5]> <tibble [0 x 1]>
#>  9 <split [130/44]> Bootstrap09 <tibble [20 x 5]> <tibble [0 x 1]>
#> 10 <split [130/53]> Bootstrap10 <tibble [20 x 5]> <tibble [0 x 1]>
#> # ... with 20 more rows
```
…
